<?xml version="1.0" encoding="utf-8"?>
<svg id="master-artboard" viewBox="0 0 1400 980" version="1.1" xmlns="http://www.w3.org/2000/svg" x="0px" y="0px" style="enable-background:new 0 0 1400 980;" width="1400px" height="980px"><rect id="ee-background" x="0" y="0" width="1400" height="980" style="fill: white; fill-opacity: 0; pointer-events: none;"/><g transform="matrix(0.660563290119171, 0, 0, 0.660563290119171, 865.6607649329956, 699.1505936516717)"><g id="g-7" transform="matrix(1, 0, 0, 1, 0, 0)">
	<g id="g-8">
		<path class="st0" d="M58,49h100v100H58V49z" style="fill: rgb(255, 255, 255);"/>
	</g>
</g></g><g transform="matrix(0.9777299761772156, 0, 0, 0.9777299761772156, 868.6050415039062, 602.9869384765625)"><g id="g-3" transform="matrix(1, 0, 0, 1, 0, 0)">
	<g id="g-4">
		<path class="st0" d="M58,49h100v100H58V49z" style="fill: rgb(255, 255, 255);"/>
	</g>
</g></g><g transform="matrix(4.976651668548583, 0, 0, 2.031287431716919, 143.67091369628903, 551.6380615234375)"><g id="g-1" transform="matrix(1, 0, 0, 1, 0, 0)">
	<g id="g-2">
		<path class="st0" d="M58,49h100v100H58V49z" style="fill: rgb(255, 255, 255);"/>
	</g>
</g></g><g transform="matrix(0.746487464010915, 0, 0, 0.746487464010915, 0.000011935175280086696, 23.915625740463327)"><path d="M 641.1875,675.1875 C 670.57202,582.34807 672.70649,535.74367 724.5625,533.65625 C 760.15002,532.2237 752.01952,563.46688 743.8125,588.03125 L 811.625,588.03125 C 845.56022,501.55686 778.92205,481.71875 736.78125,481.71875 C 615.29014,481.71876 605.39406,559.37464 579.125,638.875 L 567.96875,674.84375 C 541.45979,768.97528 549.77004,820.72616 626.34375,822.875 C 664.38391,823.9425 715.15578,814.75104 747.34375,804.1875 L 799.375,641.25 L 691.78125,641.75 L 676.625,692.59375 L 712.34375,693.1875 L 690.71875,759.78125 C 639.289,778.43959 611.7963,768.04803 641.1875,675.1875 z M 1234.5,674.78125 C 1221.3376,642.30013 1183.4163,629.28362 1162.125,609.625 C 1131.2116,581.5678 1158.7338,534.83666 1182.6875,533.0625 C 1228.1558,530.1237 1211.8063,567.01199 1204.875,589.21875 L 1271.4688,589.21875 C 1291.0099,536.84565 1283.3775,481.12235 1202.3438,480.53125 C 1201.0575,480.52187 1199.7609,480.54388 1198.4375,480.5625 C 1136.5282,481.7272 1096.1228,498.03679 1080.375,566.40625 C 1064.8221,622.16078 1091.637,643.97889 1137.6875,674.78125 C 1141.791,677.52638 1146.1188,680.37364 1150.5,683.3125 C 1186.098,702.58044 1155.2186,774.46004 1114.9062,768 C 1096.1368,764.47885 1082.7367,755.66156 1097.875,709.5 L 1027.75,709.5 C 1005.5421,786.10343 1040.6772,821.71876 1100.8125,821.71875 C 1170.3455,821.71875 1211.836,810.646 1234.625,729.46875 C 1241.2787,706.29107 1240.1557,688.8648 1234.5,674.78125 z M 1683.3907,674.78125 C 1677.6082,665.92035 1667.4202,659.41424 1651.2812,656.40625 C 1681.5839,655.2144 1716.7024,635.37754 1730.0938,584.53125 C 1746.4239,520.26527 1714.9512,486.3125 1667.625,486.3125 L 1554.25,486.3125 L 1447.3438,819.46875 L 1517.5,819.46875 L 1561.2812,682.125 C 1577.0291,680.35083 1588.0884,680.93315 1601.5625,682.125 C 1643.0395,685.64542 1590.4374,777.27984 1590.4375,820.03125 L 1668.1875,820.03125 C 1657.8189,787.06749 1707.1507,711.35019 1683.3907,674.78125 z M 523.46875,674.73438 C 483.64214,815.28236 460.38553,824.03125 359.9375,824.03125 C 345.38267,824.03123 250.09624,818.25968 284.03125,707.25 C 287.44139,695.91044 290.67994,685.05283 293.8125,674.84375 C 345.35329,507.12999 361.89934,481.71875 459.90625,481.71875 C 482.113,481.71874 577.09214,485.4976 543.40625,604.375 L 523.46875,674.73438 z M 427.71875,737.59375 L 477.40625,581 C 493.5661,530.07108 414.90713,528.46763 400.90625,571.71875 L 349.46875,728.875 C 333.72208,781.96789 411.39895,789.02678 427.71875,737.59375 z M 208.4375,486.28125 L 104.65625,486.3125 L 0,820.03125 L 97.625,819.46875 C 205.11356,824.04352 222.67147,778.49294 239.03125,731.25 C 247.12477,707.87797 244.62938,688.67103 236.3125,674.78125 C 228.29915,661.58363 214.99234,653.08265 200.4375,650.53125 C 233.76166,649.9489 262.752,632.35879 278.15625,582.75 C 301.71419,506.88257 249.42666,486.26891 208.4375,486.28125 z M 895.6875,486.3125 L 791.15625,819.46875 L 970.53125,819.46875 L 988.0625,763.3125 L 881.71875,763.3125 L 909.78125,675.6875 L 1003.3125,675.6875 L 1021.4062,619.03125 L 924.375,619.03125 L 947.15625,542.46875 L 1045.9375,542.46875 L 1064.625,486.3125 L 895.6875,486.3125 z M 1310.5938,486.3125 L 1294.2812,538.9375 L 1373.7188,538.9375 L 1286.0625,819.46875 L 1356.1875,819.46875 L 1445,538.9375 L 1516.875,538.9375 L 1533.8125,486.3125 L 1310.5938,486.3125 z M 1869.1875,486.3125 L 1679.8438,819.46875 L 1752.9062,819.46875 L 1794.9688,744.0625 L 1885.5312,744.0625 L 1882.5938,819.46875 L 1952.7188,819.46875 L 1958,486.3125 L 1869.1875,486.3125 z M 1898.4375,536 C 1894.9163,559.95495 1891.3834,579.83895 1890.2188,604.375 L 1887.2812,692.59375 L 1819.5,692.59375 L 1876.2188,590.40625 C 1884.3419,574.04767 1891.9775,556.43371 1898.4375,536 z M 157.15625,538.34375 L 189.34375,538.34375 C 213.2986,538.34375 219.6704,560.52447 213.3125,579.21875 C 206.16796,600.22602 196.9665,622.46872 170.65625,622.46875 L 130.375,622.46875 L 157.15625,538.34375 z M 1608.0312,538.9375 L 1641.3125,538.9375 C 1669.3697,538.9375 1667.6091,565.82208 1659.375,590.96875 C 1648.3414,623.62796 1630.8215,627.74999 1608.0312,627.75 L 1580.5625,627.75 L 1608.0312,538.9375 z M 115.125,672.15625 L 150.25,672.15625 C 154.35354,672.15625 158.75752,672.92322 162.75,674.78125 C 173.61833,679.85454 182.08567,692.69025 174.1875,717.75 C 159.79508,763.41504 142.60733,766.21877 126.25,766.21875 L 83.625,766.21875 L 115.125,672.15625 z" transform="matrix(0.9578396,0,0,0.9578396,0,-0.1414402)" id="path10" style="fill:#000000;fill-opacity:1"/><path d="M 574.855,406.932 C 712.467,91.872 1212.833,89.615 1367.865,406.932 L 1686.296,406.932 C 1468.592,-138.127 702.429,-133.161 507.106,406.932 L 574.855,406.932 z M 1369.46,841.81 C 1231.289,1156.868 730.924,1159.126 576.529,841.81 L 258.017,841.81 C 475.722,1386.869 1241.301,1381.903 1437.757,841.81 L 1369.46,841.81 z" id="path14" style="fill:#ff0000;fill-opacity:1;fill-rule:nonzero"/></g></svg>